{
  "navigation": {
    "browse": "Browse",
    "forum": "Forum",
    "documentation": "Docs",
    "tutorials": "Tutorials",
    "news": "News",
    "repomaker": "Repomaker",
    "issues": "Issues",
    "contribute": "Contribute",
    "about": "About"
  },
  "index": {
    "title": "What is F-Droid?",
    "introduction": "F-Droid is an installable catalogue of FOSS (Free and Open Source Software) applications for the Android platform. The client makes it easy to browse, install, and keep track of updates on your device.",
    "download_fdroid": "Download F-Droid",
    "gpg_signature": "PGP Signature",
    "screenshot": "F-Droid Android app screenshot"
  },
  "package": {
    "author": "Author",
    "license": "License",
    "build_metadata": "Build Metadata",
    "website": "Website",
    "new_in_version": "New in version [latest_version]",
    "issue_tracker": "Issue Tracker",
    "source_code": "Source Code",
    "changelog": "Changelog",
    "donate": "Donate",
    "flattr": "Flattr",
    "liberapay": "Liberapay",
    "technical_info": "Technical info",
    "packages": "Packages",
    "suggest_downloading_via_fdroid": "Although APK downloads are available below to give you the choice, you should be aware that by installing that way you will not receive update notifications and it's a less secure way to download. We recommend that you install the F-Droid client and use that.",
    "version_info": "<b>Version [package_version]</b> ([package_version_code]) - Added on [package_added_date]",
    "minimum_android_version": "This version requires Android [android_version]  or newer.",
    "signed_by_developer": "It is built and signed by the original developer.",
    "signed_by_fdroid": "It is built and signed by F-Droid, and guaranteed to correspond to <a href=\"[source_code_url]\">this source tarball</a>.",
    "permissions": "Permissions",
    "download": "Download [file_extension]",
    "gpg_signature": "PGP Signature"
  },
  "sidebars": {
    "search": {
      "heading": "Find Apps",
      "noscript": "Requires JavaScript to be enabled"
    },
    "donate": {
      "heading": "Donate",
      "powered_by_donations": "F-Droid is powered by your donations!",
      "paypal_alt": "Donate via Paypal",
      "flattr_alt": "Donate via Flattr",
      "liberapay_alt": "Donate via Liberapay",
      "bitcoin_alt": "Donate via Bitcoin",
      "via_bank_transfer": "Bank Transfer",
      "bank_transfer_name": "Name"
    },
    "last_updated": {
      "heading": "Last Updated"
    },
    "latest_packages": {
      "heading": "Latest Apps"
    },
    "news": {
      "heading": "News"
    }
  }
}
