{
    "index": {
        "download_fdroid": "F-Droid herunterladen", 
        "gpg_signature": "PGP-Signatur", 
        "introduction": "F-Droid ist ein installierbarer Katalog mit FOSS-Apps (Free and Open Source Software) für Android. Der Client vereinfacht die Suche und Installation von Apps und behält den Überblick über Aktualisierungen.", 
        "screenshot": "F-Droid App-Screenshot", 
        "title": "Was ist F-Droid?"
    }, 
    "navigation": {
        "about": "Über", 
        "browse": "Entdecken", 
        "contribute": "Mitarbeiten", 
        "documentation": "Dokumentation", 
        "forum": "Forum", 
        "issues": "Probleme", 
        "news": "Neuigkeiten", 
        "repomaker": "Repomaker"
    }, 
    "package": {
        "author": "Autor", 
        "build_metadata": "Metadaten der Paketerstellung", 
        "changelog": "Änderungen", 
        "donate": "Spenden", 
        "download": "[file_extension] herunterladen", 
        "flattr": "Flattr", 
        "gpg_signature": "PGP-Signatur", 
        "issue_tracker": "Fehlerverfolgung", 
        "license": "Lizenz", 
        "minimum_android_version": "Diese Version benötigt Android [android_version] oder neuer.", 
        "new_in_version": "Neu in Version [latest_version]", 
        "packages": "Pakete", 
        "permissions": "Berechtigungen", 
        "signed_by_developer": "Sie ist vom Originalentwickler hergestellt und signiert.", 
        "signed_by_fdroid": "Sie ist von F-Droid hergestellt, signiert und ihre Übereinstimmung mit <a href=\"[source_code_url]\">diesem Quelltext-Tarball</a> wird garantiert.", 
        "source_code": "Quelltext", 
        "suggest_downloading_via_fdroid": "Auch wenn Ihnen hier weiter unten die Möglichkeit gegeben wird, APKs direkt herunterzuladen, sollten Sie sich bewusst machen, dass Sie so keine Benachrichtigungen über Aktualisierungen erhalten werden und diese Art des Downloads weniger Sicherheit bietet. Wir empfehlen daher, dass Sie stattdessen die F-Droid-App installieren und sie dafür nutzen.", 
        "technical_info": "Technische Informationen", 
        "version_info": "<b>Version [package_version]</b> ([package_version_code]) - Hinzugefügt am [package_added_date]", 
        "website": "Internetseite"
    }, 
    "sidebars": {
        "donate": {
            "bank_transfer_name": "Name", 
            "bitcoin_alt": "Über Bitcoin spenden", 
            "flattr_alt": "Über Flattr spenden", 
            "heading": "Spenden", 
            "paypal_alt": "Über PayPal spenden", 
            "powered_by_donations": "F-Droid wird durch Ihre Spenden unterstützt!", 
            "via_bank_transfer": "Überweisung"
        }, 
        "last_updated": {
            "heading": "Zuletzt aktualisiert"
        }, 
        "latest_packages": {
            "heading": "Neuvorstellungen"
        }, 
        "news": {
            "heading": "Neuigkeiten"
        }, 
        "search": {
            "heading": "Apps finden", 
            "noscript": "Erfordert die Aktivierung von JavaScript"
        }
    }
}